<svg xmlns="http://www.w3.org/2000/svg" width="16.707" height="9.061" viewBox="0 0 16.707 9.061">
  <path id="Path_21" data-name="Path 21" d="M774.079,205.249l8,8,8-8" transform="translate(-773.726 -204.895)" fill="none" stroke="#3973b0" stroke-width="1"/>
</svg>
